A Tidy Approach to NetCDF Data Exploration and Extraction • tidync
…
## with the saved filtering from above, choose data frame or tbl_cube output
## optionally with only selected variables
subs %>% hyper_tibble()
#> # A tibble: 493 × 35
#>       PRES PRES_QC PRES_ADJUSTED PRES_ADJUSTED_QC PRES_ADJUSTED_ERROR   TEMP
#>      <dbl> <chr>           <dbl> <chr>                          <dbl>  <dbl>
#>  1  7.7000 1              7.7900 1                             2.4000 13.184
#>  2 11.800  1             11.890  1                             2.4000 13.184
#>  3 16.300  1             16.390  1                             2.4000 13.184
#>  4 21.600  1             21.690  1                             2.4000 13.184
#>  5 26.700  1             26.790  1                             2.4000 13.186
#>  6 31.700  1             31.790  1                             2.4000 13.186
#>  7 36.600  1             36.690  1                             2.4000 13.187
#>  8 41.400  1             41.490  1                             2.4000 13.187
#>  9 46.5    1             46.590  1                             2.4000 13.187
#> 10 51.800  1             51.890  1                             2.4000 13.187
#> # ℹ 483 more rows
#> # ℹ 29 more variables: TEMP_QC <chr>, TEMP_ADJUSTED <dbl>,
#> #   TEMP_ADJUSTED_QC <chr>, TEMP_ADJUSTED_ERROR <dbl>, PSAL <dbl>,
#> #   PSAL_QC <chr>, PSAL_ADJUSTED <dbl>, PSAL_ADJUSTED_QC <chr>,
#> #   PSAL_ADJUSTED_ERROR <dbl>, DOXY <dbl>, DOXY_QC <chr>, DOXY_ADJUSTED <dbl>,
#> #   DOXY_ADJUSTED_QC <chr>, DOXY_ADJUSTED_ERROR <dbl>, CHLA <dbl>,
#> #   CHLA_QC <chr>, CHLA_ADJUSTED <dbl>, CHLA_ADJUSTED_QC <chr>, …
…
