tidync: A Tidy Approach to 'NetCDF' Data Exploration and Extraction — tidync-package • tidync
…
#> M: CHLA_ADJUSTED [dbl[,2]]
#> M: CHLA_ADJUSTED_QC [chr[,2]]
#> M: CHLA_ADJUSTED_ERROR [dbl[,2]]
#> M: BBP700 [dbl[,2]]
#> M: BBP700_QC [chr[,2]]
#> M: BBP700_ADJUSTED [dbl[,2]]
#> M: BBP700_ADJUSTED_QC [chr[,2]]
#> M: BBP700_ADJUSTED_ERROR [dbl[,2]]
#> M: NITRATE [dbl[,2]]
#> M: NITRATE_QC [chr[,2]]
#> M: NITRATE_ADJUSTED [dbl[,2]]
#> M: NITRATE_ADJUSTED_QC [chr[,2]]
#> M: NITRATE_ADJUSTED_ERROR [dbl[,2]]
argo %>% hyper_tibble(select_var = c("TEMP_QC"))
#> # A tibble: 986 × 3
#>    TEMP_QC N_LEVELS N_PROF
#>    <chr>      <int>  <int>
#>  1 1              1      1
#>  2 1              2      1
#>  3 1              3      1
#>  4 1              4      1
#>  5 1              5      1
#>  6 1              6      1
#>  7 1              7      1
#>  8 1              8      1
#>  9 1              9      1
#> 10 1             10      1
#> # ℹ 976 more rows
argo %>% hyper_transforms()
#> $N_LEVELS
#> # A tibble: 493 × 6
#>    N_LEVELS index    id name     coord_dim selected
#>       <int> <int> <int> <chr>    <lgl>     <lgl>   
#>  1        1     1    10 N_LEVELS FALSE     TRUE    
#>  2        2     2    10 N_LEVELS FALSE     TRUE    
#>  3        3     3    10 N_LEVELS FALSE     TRUE    
#>  4        4     4    10 N_LEVELS FALSE     TRUE    
#>  5        5     5    10 N_LEVELS FALSE     TRUE    
#>  6        6     6    10 N_LEVELS FALSE     TRUE    
#>  7        7     7    10 N_LEVELS FALSE     TRUE    
#>  8        8     8    10 N_LEVELS FALSE     TRUE    
#>  9        9     9    10 N_LEVELS FALSE     TRUE    
#> 10       10    10    10 N_LEVELS FALSE     TRUE    
#> # ℹ 483 more rows
#> 
#> $N_PROF
#> # A tibble: 2 × 6
#>   N_PROF index    id name   coord_dim selected
#>    <int> <int> <int> <chr>  <lgl>     <lgl>   
#> 1      1     1     8 N_PROF FALSE     TRUE    
#> 2      2     2     8 N_PROF FALSE     TRUE    
#> 
argo %>% hyper_vars()
#> # A tibble: 35 × 6
#>       id name                type     ndims natts dim_coord
#>    <int> <chr>               <chr>    <int> <int> <lgl>    
#>  1    37 PRES                NC_FLOAT     2    10 FALSE    
#>  2    38 PRES_QC             NC_CHAR      2     3 FALSE    
#>  3    39 PRES_ADJUSTED       NC_FLOAT     2     9 FALSE    
#>  4    40 PRES_ADJUSTED_QC    NC_CHAR      2     3 FALSE    
#>  5    41 PRES_ADJUSTED_ERROR NC_FLOAT     2     6 FALSE    
#>  6    42 TEMP                NC_FLOAT     2     9 FALSE    
#>  7    43 TEMP_QC             NC_CHAR      2     3 FALSE    
#>  8    44 TEMP_ADJUSTED       NC_FLOAT     2     9 FALSE    
#>  9    45 TEMP_ADJUSTED_QC    NC_CHAR      2     3 FALSE    
#> 10    46 TEMP_ADJUSTED_ERROR NC_FLOAT     2     6 FALSE    
#> # ℹ 25 more rows
…
